%YAML 1.1
%TAG !u! tag:unity3d.com,2011:
--- !u!1 &3920698232305614183
GameObject:
  m_ObjectHideFlags: 0
  m_CorrespondingSourceObject: {fileID: 0}
  m_PrefabInstance: {fileID: 0}
  m_PrefabAsset: {fileID: 0}
  serializedVersion: 6
  m_Component:
  - component: {fileID: 3920698232305614180}
  - component: {fileID: 3920698232305614181}
  m_Layer: 0
  m_Name: PowerUps
  m_TagString: Untagged
  m_Icon: {fileID: 0}
  m_NavMeshLayer: 0
  m_StaticEditorFlags: 0
  m_IsActive: 1
--- !u!4 &3920698232305614180
Transform:
  m_ObjectHideFlags: 0
  m_CorrespondingSourceObject: {fileID: 0}
  m_PrefabInstance: {fileID: 0}
  m_PrefabAsset: {fileID: 0}
  m_GameObject: {fileID: 3920698232305614183}
  m_LocalRotation: {x: 0, y: 0, z: 0, w: 1}
  m_LocalPosition: {x: 0, y: 0, z: 0}
  m_LocalScale: {x: 1, y: 1, z: 1}
  m_Children: []
  m_Father: {fileID: 0}
  m_RootOrder: 0
  m_LocalEulerAnglesHint: {x: 0, y: 0, z: 0}
--- !u!114 &3920698232305614181
MonoBehaviour:
  m_ObjectHideFlags: 0
  m_CorrespondingSourceObject: {fileID: 0}
  m_PrefabInstance: {fileID: 0}
  m_PrefabAsset: {fileID: 0}
  m_GameObject: {fileID: 3920698232305614183}
  m_Enabled: 1
  m_EditorHideFlags: 0
  m_Script: {fileID: 11500000, guid: 9d4fdb486fcf93743a69473507675012, type: 3}
  m_Name: 
  m_EditorClassIdentifier: 
  PowerUps:
  - {fileID: 4621763156954070079, guid: e8fb9cbdd88135d4a96b3583b4981872, type: 3}
  - {fileID: 6862727523858025388, guid: 01370302a989cdb40a4de2202be1c915, type: 3}
  - {fileID: 6170542980093822245, guid: 10f4e69179bac0546a5d52705102cb02, type: 3}
  - {fileID: 6669045384848949555, guid: f0dd31a42f39ac24d8b98b213aea4974, type: 3}
  Times: 20
